[
    "userAgent",
    "environment",
    "lighthouseVersion",
    "fetchTime",
    "requestedUrl",
    "finalUrl",
    "runWarnings",
    "runtimeError",
    "audits",
    "configSettings",
    "categories",
    "categoryGroups",
    "timing",
    "i18n"
]